Aaron Schulz,aschulz@wikimedia.org
Abartov,abartov@wikimedia.org
Abijeet Patro,apatro@wikimedia.org
Arturo Borrero Gonzalez,aborrero@wikimedia.org
AGueyte,agueyte@wikimedia.org
Ahemmer,ahemmer@wikimedia.org
Aklapper,aklapper@wikimedia.org
Alexandros Kosiaris,akosiaris@wikimedia.org
Amire80,amir.aharoni@mail.huji.ac.il
Andrew Bogott,andrewbogott@gmail.com
Anne Tomasevich,atomasevich@wikimedia.org
Apalmer,apalmer@wikimedia.org
Alex Paskulin,apaskulin@wikimedia.org
Cory Massaro,cmassaro@wikimedia.org
ArielGlenn,ariel@wikimedia.org
Arlolra,arlolra@gmail.com
AShahrestani,ashahrestani@wikimedia.org
Asikingarmager,easikingarmager@wikimedia.org
Astinson,astinson@wikimedia.org
Awjrichards,arichards@wikimedia.org
Ayounsi,ayounsi@wikimedia.org
Brian Wolff,bawolff+wn@gmail.com
BBlack,bblack@wikimedia.org
BryanDavis,bdavis@wikimedia.org
Bearloga,mpopov@wikimedia.org
Bmueller,bmueller@wikimedia.org
BPirkle,bpirkle@wikimedia.org
Brennen Bearnes,bbearnes@wikimedia.org
Brion VIBBER,brion@wikimedia.org
Bernard Wang,bwang@wikimedia.org
Catrope,roan@wikimedia.org
CBogen,cbogen@wikimedia.org
CDanis,cdanis@wikimedia.org
Cdenes,cdenes@wikimedia.org
Cstone,cstone@wikimedia.org
Calbon,calbon@wikimedia.org
Cicalese,cindom@gmail.com
Clare Ming,cming@wikimedia.org
Cmadeo,cmadeo@wikimedia.org
Conniecc1,cchen@wikimedia.org
Cooltey,cfeng@wikimedia.org
Cparle,cparle@wikimedia.org
C. Scott Ananian,cscott@cscott.net
Cwhite,cwhite@wikimedia.org
Cwylo,clo@wikimedia.org
Dchen,dchen@wikimedia.org
Ahmon Dancy,adancy@wikimedia.org
Daniel Kinzler,dkinzler@fastmail.com
Dbrant,dbrant@wikimedia.org
David Caro,dcaro@wikimedia.org
DCausse,dcausse@wikimedia.org
Dduvall,dduvall@wikimedia.org
Debt,dtankersley@wikimedia.org
Dmaza,dmaza@wikimedia.org
Dr0ptp4kt,abaso@wikimedia.org
DRochford,drochford@wikimedia.org
Diego,diego@wikimedia.org
DNdubane,dndubane@wikimedia.org
DVrandecic,dvrandecic@wikimedia.org
Dom Walden,dwalden@wikimedia.org
Dwisehaupt,dwisehaupt@wikimedia.org
Dzahn,dzahn@wikimedia.org
Eamedina,eamedina@wikimedia.org
Ebernhardson,ebernhardson@wikimedia.org
Edward Tadros,proticom-ctr@wikimedia.org
Ed Erhart,eerhart@wikimedia.org
Eevans,eevans@wikimedia.org
Eric Gardner,egardner@wikimedia.org
Ejegg,ejegg@ejegg.com
Elukey,ltoscano@wikimedia.org
Esanders,esanders@wikimedia.org
Etonkovidova,etonkovidova@wikimedia.org
Fabian Kaelin,fkaelin+wikitech@wikimedia.org
Ferdbold,bolducfrederic@gmail.com
Filippo Giunchedi,fgiunchedi@wikimedia.org
Foks,jsutherland@wikimedia.org
Gehel,glederrey@wikimedia.org
Genoveva Galarza,ggalarzaheredero@wikimedia.org
Greg Grossmeier,greg@wikimedia.org
Gmodena,gmodena@wikimedia.org
Guillom,gpaumier@wikimedia.org
Hashar,hashar@free.fr
Herron,kherron@wikimedia.org
HMonroy,hmonroy@wikimedia.org
HNordeen,hnordeen@wikimedia.org
Hnowlan,hnowlan@wikimedia.org
Huei Tan,htan@wikimedia.org
Iflorez,iflorez-ctr@wikimedia.org
Ifried,ifried@wikimedia.org
I JethroBT,cschilling@wikimedia.org
Isaac Johnson,ijohnson@wikimedia.org
JEissfeldt,jeissfeldt@wikimedia.org
JAnstee,janstee@wikimedia.org
JMeybohm,jmeybohm@wikimedia.org
JTanner,jtanner@wikimedia.org
Jbuatti,jbuatti@wikimedia.org
Jclark-ctr,Jclark-ctr@wikimedia.org
Jdlrobson,jrobson@wikimedia.org
Jdrewniak,jdrewniak@wikimedia.org
Jfishback,jfishback@wikimedia.org
Jforrester,jforrester@wikimedia.org
Jgiannelos,jgiannelos@wikimedia.org
Jgleeson,jgleeson@wikimedia.org
Jgreen,jgreen@wikimedia.org
Jeena Huneidi,jhuneidi@wikimedia.org
Jenniferwang,jwang@wikimedia.org
Effie Mouzeli,emouzeli@wikimedia.org
JMinor,jminor@wikimedia.org
Muehlenhoff,mmuhlenhoff@wikimedia.org
Joal,joal@wikimedia.org
Jrbranaa,jbranaa@wikimedia.org
Jcrespo,jcrespo@wikimedia.org
KartikMistry,kartik.mistry@gmail.com
Kechavarriqueen,kechavarriqueen@wikimedia.org
Kate Chapman,kchapman@wikimedia.org
DLynch,dlynch@wikimedia.org
Kevin Bazira,kbazira@wikimedia.org
Kosta Harlan,kharlan@wikimedia.org
Klausman,tklausmann@wikimedia.org
Kormat,sbmhaol@wikimedia.org
Krinkle,krinklemail@gmail.com
Kate Zimmerman,kzimmerman@wikimedia.org
Lauren Dickinson,ldickinson@wikimedia.org
LMata,lmata@wikimedia.org
Lmixter,lmixter@wikimedia.org
LSobanski,lsobanski@wikimedia.org
Mark Bergsma,mark@wikimedia.org
MarkTraceur,mtraceur@member.fsf.org
Marostegui,marostegui@wikimedia.org
Maryana,mpinchuk@wikimedia.org
Bartosz Dziewoński,matma.rex@gmail.com
Mayakpwiki,mkampurath@wikimedia.org
MSantos,msantos@wikimedia.org
Mforns,mforns@wikimedia.org
MGerlach,mgerlach@wikimedia.org
Mhernandez,mhernandez@wikimedia.org
Mhurd,mhurd@wikimedia.org
Mikeraish,mraish@wikimedia.org
Milimetric,dandreescu@wikimedia.org
Miriam,mredi@wikimedia.org
MKramer,mkramer@wikimedia.org
Matthias Mullie,mmullie@wikimedia.org
MMiller,mmiller@wikimedia.org
MNeisler,mneisler@wikimedia.org
Mstyles,mstyles@wikimedia.org
Mike Pham,mpham@wikimedia.org
MusikAnimal,musikanimal@gmail.com
Mvolz,marielle.volz@gmail.com
Mwilliams,mwilliams@wikimedia.org
NahidSultan,nsultan@wikimedia.org
NNzali,nnzali@wikimedia.org
Nettrom,nettrom@gmail.com
Nik Gkountas,ngkountas@wikimedia.org
Niharika29,niharikakohli29@gmail.com
Nikerabbit,niklas.laxstrom@gmail.com
Nskaggs,nskaggs@wikimedia.org
Giuseppe Lavagetto,glavagetto@wikimedia.org
Ottomata,aotto@wikimedia.org
Ovasileva,ovasileva@wikimedia.org
Pablo,paragon@wikimedia.org
Pcoombe,pcoombe@wikimedia.org
Praveen Das,pdas@wikimedia.org
Phuedx,samuel.david.smith@gmail.com
Pmiazga,pmiazga@wikimedia.org
PPelberg,ppelberg@wikimedia.org
Papaul,ptshibamba@wikimedia.org
Qgil,qgil@wikimedia.org
Quiddity,nwilson@wikimedia.org
RStallman,rstallman@wikimedia.org
Reedy,reedy@wikimedia.org
Rho,rho@wikimedia.org
Rmaung,rmaung@wikimedia.org
Rmurthy,rmurthy-ctr@wikimedia.org
RobH,rob@wikimedia.org
Rampofo,rampofo@wikimedia.org
Runa,rbhattacharjee@wikimedia.org
Ryanbrounley,rbrounley@wikimedia.org
Ryan Kemper,rkemper@wikimedia.org
Ryasmeen,ryasmeen@wikimedia.org
RLazarus,rlazarus@wikimedia.org
Samwalton,swalton@wikimedia.org
Samwilson,sam@samwilson.id.au
Santhosh,santhosh.thottingal@gmail.com
Sbailey,sbailey@wikimedia.org
SBassett,sbassett@wikimedia.org
Sbisson,sbisson@wikimedia.org
Schoenbaechler,rschoenbaechler@wikimedia.org
Seddon,jseddon@wikimedia.org
Samuel (WMF),sguebo@wikimedia.org
Sharvaniharan,sharvaniharan83@gmail.com
Margeigh Novotny,mnovotny@wikimedia.org
Slaporte,stephen.laporte@gmail.com
Shay Nowick,Snowick@wikimedia.org
SOworu,soworu@wikimedia.org
Spatton,spatton@wikimedia.org
SpramudyaDev,spramudya@wikimedia.org
Srishakatux,ssethi@wikimedia.org
Subramanya Sastry,ssastry@wikimedia.org
STran,stran@wikimedia.org
SudhanshuGautam,sgautam@wikimedia.org
Scardenasmolinar,scardenasmolinar@wikimedia.org
Ssingh,ssingh@wikimedia.org
Tchanders,thalia.e.chan@googlemail.com
Gergő Tisza,tgr.huwiki@gmail.com
Thcipriani,tcipriani@wikimedia.org
Tjones,tjones@wikimedia.org
TsepoThoabala,tthoabala@wikimedia.org
Tsevener,tsevener@wikimedia.org
TSkaff,tskaff@wikimedia.org
Tim Starling,tstarling@wikimedia.org
UOzurumba,uozurumba-ctr@wikimedia.org
Varnent,gvarnum@wikimedia.org
Vgutierrez,vgutierrez@wikimedia.org
Vasanthi Hargyono,vhargyono@wikimedia.org
Volans,rcoccioli@wikimedia.org
VolkerE,volker.e@wikimedia.org
Veronica Thamaini,vthamaini@wikimedia.org
Will Doran,wdoran@wikimedia.org
WhatamIdoing,ssnyder@wikimedia.org
Mooeypoo,moriel@gmail.com
Wpao,wpao@wikimedia.org
Wubwubwub,abittaker@wikimedia.org
ZMcCune,zmccune@wikimedia.org
Zfilipin,zfilipin@wikimedia.org
Zsoo,zsoo@wikimedia.org
Cathal Mooney,cmooney@wikimedia.org
Jobo,jborun@wikimedia.org
Elitre,elitre82@gmail.com
SGrabarczuk,sgrabarczuk@wikimedia.org
Johan,jjonsson@wikimedia.org
Keegan,kpeterzell@wikimedia.org
Trizek,aerius@aerius.fr
STei,stei@wikimedia.org
Sannita,sannita-ctr@wikimedia.org
ODimitrijevic,odimitrijevic@wikimedia.org
JStephenson,jstephenson@wikimedia.org
Satdeep Wikitech,satdeepgill@gmail.com
Htriedman,htriedman@wikimedia.org
BVershbowDev,bvershbow@wikimedia.org
Jelto,jwodstrcil@wikimedia.org
Isabelle Hurbain-Palatin,ihurbainpalatin@wikimedia.org
WQuarshie,wquarshie@wikimedia.org
Btullis,btullis@wikimedia.org
TChin,tchin@wikimedia.org
Fgoodwin,fgoodwin@wikimedia.org
MVernon,mvernon@wikimedia.org
AOkoth,aokoth@wikimedia.org
Natalia Rodriguez,nrodriguez@wikimedia.org
TAndic,tandic-ctr@wikimedia.org
Bethany,bgerdemann@wikimedia.org
CMaslak,cmaslak@wikimedia.org
KateLevan,klevan@wikimedia.org
Nforrester,nforrester@wikimedia.org
Jmando,jmando-ctr@wikimedia.org
SCherukuwada,scherukuwada@wikimedia.org
JKlein,jklein@wikimedia.org
KCVelaga (wikimf),kcvelaga@wikimedia.org
CBlanton,cblanton@wikimedia.org
KSiebert,ksiebert@wikimedia.org
EllenR,erayfield@wikimedia.org
TTaylor,ttaylor@wikimedia.org
Sergio Gimeno,sgimeno@wikimedia.org
Ldelench,ldelench@wikimedia.org
Jacquelinechen,jchen@wikimedia.org
Luke Bowmaker,lbowmaker@wikimedia.org
Ladsgroup,Ladsgroup@gmail.com
Cmelo,cmelo@wikimedia.org
David Martin,dmartin@wikimedia.org
Jkieserman,jkieserman@wikimedia.org
Eigyan,eigyan@wikimedia.org
Mmartorana,mmartorana@wikimedia.org
JHathaway,jhathaway@wikimedia.org
Jsn.sherman,jsherman@wikimedia.org
Amin Al Hazwani,aalhazwani@wikimedia.org
ELeoni,eleoni@wikimedia.org
Damilare Adedoyin,dadedoyin@wikimedia.org
Elena Lappen,elappen@wikimedia.org
Mary Munyoki,mmunyoki@wikimedia.org
Bking,bking@wikimedia.org
Spatel,spatel@wikimedia.org
Aqu,aquhen@wikimedia.org
JVargas,jvargas@wikimedia.org
Snwachukwu,snwachukwu@wikimedia.org
Marco Fossati,mfossati@wikimedia.org
Nmaphophe,nmaphophe@wikimedia.org
Sérgio Lopes,slopes@wikimedia.org
Madalina,mana@wikimedia.org
Jaime Nuche,jnuche@wikimedia.org
AUgolnikova,augolnikova@wikimedia.org
AikoChou,achou@wikimedia.org
Kinneretgordon,kgordon@wikimedia.org
Hokwelum,hokwelum@wikimedia.org
Vivian Rook,vrook@wikimedia.org
OTichonova,otichonova-ctr@wikimedia.org
Nathillard,nhillard@wikimedia.org
Samtar,starling-ctr@wikimedia.org
Andrea Denisse,adenisse@wikimedia.org
Slyngshede,slyngshede@wikimedia.org
BCornwall,bcornwall@wikimedia.org
Esther Akinloose,estherakinloose@gmail.com
Dmantena,dmantena@wikimedia.org
Mazevedo,mazevedo@wikimedia.org
Mabualruz,mabualruz@wikimedia.org
Lgaulia,lgaulia@wikimedia.org
KStoller,kstoller@wikimedia.org
Xcollazo,xcollazo@wikimedia.org
Caroline Myrick,cmyrick@wikimedia.org
TBurmeister,tburmeister@wikimedia.org
DDesouza,ddesouza-ctr@wikimedia.org
Leizi,leila@wikimedia.org
FNegri,fnegri@wikimedia.org
Raymond Ndibe,rolisaemeka-ctr@wikimedia.org
Slavina Stefanova,sstefanova@wikimedia.org
Pwangai,pwangai@wikimedia.org
Clément Goubert,cgoubert@wikimedia.org
Pwaigi,pwaigi@wikimedia.org
Peter Fischer,pfischer@wikimedia.org
Pginer,pginer@wikimedia.org
Phedenskog,phedenskog@wikimedia.org
Mhorsey,mhorsey@wikimedia.org
Stef Dunlap,sdunlap@wikimedia.org
Haroon shaikh,hshaikh@wikimedia.org
Ptiwary,ptiwary@wikimedia.org
GFontenelle,gfontenelle@wikimedia.org
Appledora,ntasnim-ctr@wikimedia.org
KMorgan,kmorgan@wikimedia.org
Ilias Sarantopoulos,isarantopoulos@wikimedia.org
Stevemunene,smunene@wikimedia.org
Abhas,atripathi@wikimedia.org
Virginia Poundstone,vpoundstone@wikimedia.org
KHurd1,khurd@wikimedia.org
Vaughn Walters,vwalters@wikimedia.org
Jhancock.wm,jhancock-ctr@wikimedia.org
SDelbecque,sdelbecque@wikimedia.org
Sbenchagra,sbenchagra@wikimedia.org
Wfan219,wfan@wikimedia.org
Wangombe,ewangombe-ctr@wikimedia.org
Eileen,emcnaughton@wikimedia.org
Kimberly Sarabia,ksarabia@wikimedia.org
Jennifer Ebe,jebe@wikimedia.org
Kappakayala,kappakayala@wikimedia.org
Kwakuofori,kofori@wikimedia.org
MShilova,mshilova@wikimedia.org
EoghanGaffney,egaffney@wikimedia.org
Anil,akanji@wikimedia.org
AKhatun,akhatun-ctr@wikimedia.org
Santiago Faci,sfaci@wikimedia.org
Aranyap,aprum-ctr@wikimedia.org
Nick Ifeajika,nifeajika-ctr@wikimedia.org
LWatson,lwatson-ctr@wikimedia.org
Sarah Mukuti,smukuti-ctr@wikimedia.org
Kamila Součková,ksouckova@wikimedia.org
Barakat Ajadi,babiola-ctr@wikimedia.org
Jbond,jbond@wikimedia.org
KBach,kbach@wikimedia.org
Atieno,pnjira@wikimedia.org
FNavas-foundation,fnavas-ctr@wikimedia.org
Ccoxwell,ccoxwell@wikimedia.org
Andy Cooper,acooper@wikimedia.org
Fjoseph,fjoseph@wikimedia.org
Fabfur,ffurnari@wikimedia.org
Hghani,hghani-ctr@wikimedia.org
Neil Shah-Quinn (WMF),nshahquinn@wikimedia.org
Timo Tijhof,krinkle@fastmail.com
seddon,JOSEPHSEDDON@GMAIL.COM
